C:\adroit\projects\fnb_life\core-automation-fnb-life\mobile_automation\src\main\java\appium\managers\AppiumDriverManager.java
C:\adroit\projects\fnb_life\core-automation-fnb-life\mobile_automation\src\main\java\appium\MobileDriverType.java
C:\adroit\projects\fnb_life\core-automation-fnb-life\mobile_automation\src\main\java\appium\managers\MobileDriverManager.java
C:\adroit\projects\fnb_life\core-automation-fnb-life\mobile_automation\src\main\java\appium\MobileDriverManagerFactory.java
