files\TextFileReader.class
files\transform\ExcelToDataTableTests.class
co\za\fnb\automation\common\testing\TestCaseExamples.class
files\DatabaseTransactorTests.class
files\ExcelWriterTests.class
files\ExcelReaderTests.class
